﻿  ConsoleApplication3.cpp
C:\Users\User\source\repos\ConsoleApplication3\ConsoleApplication3.cpp(144,23): warning C4018: '<': signed/unsigned 不相符
C:\Users\User\source\repos\ConsoleApplication3\ConsoleApplication3.cpp(150,48): warning C4018: '>=': signed/unsigned 不相符
  LINK : 最後的累加連結找不到或未建置 C:\Users\User\source\repos\ConsoleApplication3\Debug\ConsoleApplication3.exe，正在執行完整連結
  ConsoleApplication3.vcxproj -> C:\Users\User\source\repos\ConsoleApplication3\Debug\ConsoleApplication3.exe
